{
  "items" : [ {
    "external_urls" : {
      "spotify" : "https://open.spotify.com/artist/4Z8W4fKeB5YxbusRsdQVPb"
    },
    "followers" : {
      "href" : null,
      "total" : 1692872
    },
    "genres" : [ ],
    "href" : "https://api.spotify.com/v1/artists/4Z8W4fKeB5YxbusRsdQVPb",
    "id" : "4Z8W4fKeB5YxbusRsdQVPb",
    "images" : [ {
      "height" : 640,
      "url" : "https://i.scdn.co/image/afcd616e1ef2d2786f47b3b4a8a6aeea24a72adc",
      "width" : 640
    }, {
      "height" : 320,
      "url" : "https://i.scdn.co/image/563754af10b3d9f9f62a3458e699f58c4a02870f",
      "width" : 320
    }, {
      "height" : 160,
      "url" : "https://i.scdn.co/image/4067ea225d8b42fa6951857d3af27dd07d60f3c6",
      "width" : 160
    } ],
    "name" : "Radiohead",
    "popularity" : 78,
    "type" : "artist",
    "uri" : "spotify:artist:4Z8W4fKeB5YxbusRsdQVPb"
  }, {
    "external_urls" : {
      "spotify" : "https://open.spotify.com/artist/1QOmebWGB6FdFtW7Bo3F0W"
    },
    "followers" : {
      "href" : null,
      "total" : 437288
    },
    "genres" : [ "argentine rock", "latin alternative", "rock en espanol" ],
    "href" : "https://api.spotify.com/v1/artists/1QOmebWGB6FdFtW7Bo3F0W",
    "id" : "1QOmebWGB6FdFtW7Bo3F0W",
    "images" : [ {
      "height" : 647,
      "url" : "https://i.scdn.co/image/b5ac82dff61b3a4e0e84c79d7d1a3d5e57011f89",
      "width" : 1000
    }, {
      "height" : 414,
      "url" : "https://i.scdn.co/image/a5a325cb5b4cebb3404eeba0b3bb35beac0ae0ea",
      "width" : 640
    }, {
      "height" : 129,
      "url" : "https://i.scdn.co/image/6caa6c4700a605175ab67c4cf345fc99de97eba2",
      "width" : 199
    }, {
      "height" : 41,
      "url" : "https://i.scdn.co/image/a68e197137d366d1feb86e012c93c4841d83e55e",
      "width" : 63
    } ],
    "name" : "Gustavo Cerati",
    "popularity" : 70,
    "type" : "artist",
    "uri" : "spotify:artist:1QOmebWGB6FdFtW7Bo3F0W"
  }, {
    "external_urls" : {
      "spotify" : "https://open.spotify.com/artist/7An4yvF7hDYDolN4m5zKBp"
    },
    "followers" : {
      "href" : null,
      "total" : 576474
    },
    "genres" : [ "latin alternative", "rock en espanol" ],
    "href" : "https://api.spotify.com/v1/artists/7An4yvF7hDYDolN4m5zKBp",
    "id" : "7An4yvF7hDYDolN4m5zKBp",
    "images" : [ {
      "height" : 640,
      "url" : "https://i.scdn.co/image/937c0ac148f92aced440f08751eb24c6de9e800b",
      "width" : 640
    }, {
      "height" : 300,
      "url" : "https://i.scdn.co/image/85d063c251c84f120cfd867fe777d34068e78e32",
      "width" : 300
    }, {
      "height" : 64,
      "url" : "https://i.scdn.co/image/51e4278b2fcfbcccbf2ed28ebdc65206cb9b1178",
      "width" : 64
    } ],
    "name" : "Soda Stereo",
    "popularity" : 73,
    "type" : "artist",
    "uri" : "spotify:artist:7An4yvF7hDYDolN4m5zKBp"
  }, {
    "external_urls" : {
      "spotify" : "https://open.spotify.com/artist/7jy3rLJdDQY21OgRLCZ9sD"
    },
    "followers" : {
      "href" : null,
      "total" : 2040976
    },
    "genres" : [ "alternative rock", "permanent wave", "post-grunge" ],
    "href" : "https://api.spotify.com/v1/artists/7jy3rLJdDQY21OgRLCZ9sD",
    "id" : "7jy3rLJdDQY21OgRLCZ9sD",
    "images" : [ {
      "height" : 467,
      "url" : "https://i.scdn.co/image/dacafa4d27b963a536e38611ad85fccc8e710984",
      "width" : 583
    }, {
      "height" : 160,
      "url" : "https://i.scdn.co/image/043784adc3228d7dc7de5fb77830bd461ad1b799",
      "width" : 200
    }, {
      "height" : 51,
      "url" : "https://i.scdn.co/image/ce1e5bf14ea53994ff72d0726ad35f49a7c732cc",
      "width" : 64
    } ],
    "name" : "Foo Fighters",
    "popularity" : 77,
    "type" : "artist",
    "uri" : "spotify:artist:7jy3rLJdDQY21OgRLCZ9sD"
  }, {
    "external_urls" : {
      "spotify" : "https://open.spotify.com/artist/5n9bMYfz9qss2VOW89EVs2"
    },
    "followers" : {
      "href" : null,
      "total" : 115199
    },
    "genres" : [ "colombian rock" ],
    "href" : "https://api.spotify.com/v1/artists/5n9bMYfz9qss2VOW89EVs2",
    "id" : "5n9bMYfz9qss2VOW89EVs2",
    "images" : [ {
      "height" : 667,
      "url" : "https://i.scdn.co/image/c908dfd047ae9cd003dede5adbda1d889a6e54e5",
      "width" : 1000
    }, {
      "height" : 427,
      "url" : "https://i.scdn.co/image/b806cbe55c18d2cffce43e1cbfb0cc7dd97eb643",
      "width" : 640
    }, {
      "height" : 133,
      "url" : "https://i.scdn.co/image/2e55ecf78191f2847c8ea73f8e6e04abec3e982e",
      "width" : 200
    }, {
      "height" : 43,
      "url" : "https://i.scdn.co/image/73c373b37b54e3ec839211bd36d68976457e13f3",
      "width" : 64
    } ],
    "name" : "Bomba Estéreo",
    "popularity" : 61,
    "type" : "artist",
    "uri" : "spotify:artist:5n9bMYfz9qss2VOW89EVs2"
  }, {
    "external_urls" : {
      "spotify" : "https://open.spotify.com/artist/2NqgE99Ll5vOTvmbN7O2R6"
    },
    "followers" : {
      "href" : null,
      "total" : 106303
    },
    "genres" : [ ],
    "href" : "https://api.spotify.com/v1/artists/2NqgE99Ll5vOTvmbN7O2R6",
    "id" : "2NqgE99Ll5vOTvmbN7O2R6",
    "images" : [ {
      "height" : 563,
      "url" : "https://i.scdn.co/image/f6fa60c403f42aac4a6b4fcb94e187f8e6eda4ea",
      "width" : 1000
    }, {
      "height" : 360,
      "url" : "https://i.scdn.co/image/8e76daa529a36da48f985aa20b43e96e1b064dda",
      "width" : 640
    }, {
      "height" : 113,
      "url" : "https://i.scdn.co/image/2ccac3234437fd13b8b37542012c9f763d36b35a",
      "width" : 200
    }, {
      "height" : 36,
      "url" : "https://i.scdn.co/image/352b01e7a9318710da3065ad75b5478afe1441f3",
      "width" : 64
    } ],
    "name" : "Boy & Bear",
    "popularity" : 61,
    "type" : "artist",
    "uri" : "spotify:artist:2NqgE99Ll5vOTvmbN7O2R6"
  }, {
    "external_urls" : {
      "spotify" : "https://open.spotify.com/artist/0k17h0D3J5VfsdmQ1iZtE9"
    },
    "followers" : {
      "href" : null,
      "total" : 1782001
    },
    "genres" : [ "art rock" ],
    "href" : "https://api.spotify.com/v1/artists/0k17h0D3J5VfsdmQ1iZtE9",
    "id" : "0k17h0D3J5VfsdmQ1iZtE9",
    "images" : [ {
      "height" : 977,
      "url" : "https://i.scdn.co/image/e69f71e2be4b67b82af90fb8e9d805715e0684fa",
      "width" : 1000
    }, {
      "height" : 625,
      "url" : "https://i.scdn.co/image/d011c95081cd9a329e506abd7ded47535d524a07",
      "width" : 640
    }, {
      "height" : 195,
      "url" : "https://i.scdn.co/image/f0a39a8a196a87a7236bdcf8a8708f6d5d3547cc",
      "width" : 200
    }, {
      "height" : 63,
      "url" : "https://i.scdn.co/image/ec1fb7127168dbaa962404031409c5a293b95ec6",
      "width" : 64
    } ],
    "name" : "Pink Floyd",
    "popularity" : 79,
    "type" : "artist",
    "uri" : "spotify:artist:0k17h0D3J5VfsdmQ1iZtE9"
  }, {
    "external_urls" : {
      "spotify" : "https://open.spotify.com/artist/4vhNDa5ycK0ST968ek7kRr"
    },
    "followers" : {
      "href" : null,
      "total" : 287708
    },
    "genres" : [ "cumbia", "vallenato" ],
    "href" : "https://api.spotify.com/v1/artists/4vhNDa5ycK0ST968ek7kRr",
    "id" : "4vhNDa5ycK0ST968ek7kRr",
    "images" : [ {
      "height" : 666,
      "url" : "https://i.scdn.co/image/a498c3595ad2b39111a7793f1b0e2ec4ab6bc9c3",
      "width" : 999
    }, {
      "height" : 427,
      "url" : "https://i.scdn.co/image/764b1625dc8c89ab71c4d926b6252b11d8fef85d",
      "width" : 640
    }, {
      "height" : 133,
      "url" : "https://i.scdn.co/image/775644213ca7623c647815503420979d9c20d361",
      "width" : 200
    }, {
      "height" : 43,
      "url" : "https://i.scdn.co/image/797dd1e176ef55f2f2d43f280d2f60eb34328f20",
      "width" : 64
    } ],
    "name" : "Carlos Vives",
    "popularity" : 78,
    "type" : "artist",
    "uri" : "spotify:artist:4vhNDa5ycK0ST968ek7kRr"
  }, {
    "external_urls" : {
      "spotify" : "https://open.spotify.com/artist/12Chz98pHFMPJEknJQMWvI"
    },
    "followers" : {
      "href" : null,
      "total" : 2246266
    },
    "genres" : [ ],
    "href" : "https://api.spotify.com/v1/artists/12Chz98pHFMPJEknJQMWvI",
    "id" : "12Chz98pHFMPJEknJQMWvI",
    "images" : [ {
      "height" : 667,
      "url" : "https://i.scdn.co/image/0b3c04473aa6a2db8235e5092ec3413f35752b8d",
      "width" : 1000
    }, {
      "height" : 427,
      "url" : "https://i.scdn.co/image/cf54c2d4a4549fb484862a9c475fc897bb5ce707",
      "width" : 640
    }, {
      "height" : 133,
      "url" : "https://i.scdn.co/image/837c977024362a7f6d1873027e2a8664e21f911a",
      "width" : 200
    }, {
      "height" : 43,
      "url" : "https://i.scdn.co/image/0b14ff7b9c9fcfaf6b662fe439576c531b0aa8d8",
      "width" : 64
    } ],
    "name" : "Muse",
    "popularity" : 77,
    "type" : "artist",
    "uri" : "spotify:artist:12Chz98pHFMPJEknJQMWvI"
  }, {
    "external_urls" : {
      "spotify" : "https://open.spotify.com/artist/5WUlDfRSoLAfcVSX1WnrxN"
    },
    "followers" : {
      "href" : null,
      "total" : 2316319
    },
    "genres" : [ ],
    "href" : "https://api.spotify.com/v1/artists/5WUlDfRSoLAfcVSX1WnrxN",
    "id" : "5WUlDfRSoLAfcVSX1WnrxN",
    "images" : [ {
      "height" : 1333,
      "url" : "https://i.scdn.co/image/652b6bb0dfaf8aa444f4414ee018699260e74306",
      "width" : 1000
    }, {
      "height" : 853,
      "url" : "https://i.scdn.co/image/a82822ab211cbe28a0a1dbcb16902a1a8a2ea791",
      "width" : 640
    }, {
      "height" : 267,
      "url" : "https://i.scdn.co/image/dd3e336d456172bbda56b543c5389e1490903a30",
      "width" : 200
    }, {
      "height" : 85,
      "url" : "https://i.scdn.co/image/95a2aa98384b31336b8d56f8b470c45b12dcd550",
      "width" : 64
    } ],
    "name" : "Sia",
    "popularity" : 90,
    "type" : "artist",
    "uri" : "spotify:artist:5WUlDfRSoLAfcVSX1WnrxN"
  }, {
    "external_urls" : {
      "spotify" : "https://open.spotify.com/artist/4dpARuHxo51G3z768sgnrY"
    },
    "followers" : {
      "href" : null,
      "total" : 5073551
    },
    "genres" : [ "pop" ],
    "href" : "https://api.spotify.com/v1/artists/4dpARuHxo51G3z768sgnrY",
    "id" : "4dpARuHxo51G3z768sgnrY",
    "images" : [ {
      "height" : 1000,
      "url" : "https://i.scdn.co/image/ccbe7b4fef679f821988c78dbd4734471834e3d9",
      "width" : 1000
    }, {
      "height" : 640,
      "url" : "https://i.scdn.co/image/f8737f6fda048b45efe91f81c2bda2b601ae689c",
      "width" : 640
    }, {
      "height" : 200,
      "url" : "https://i.scdn.co/image/df070ad127f62d682596e515ac69d5bef56e0897",
      "width" : 200
    }, {
      "height" : 64,
      "url" : "https://i.scdn.co/image/cbbdfb209cc38b2999b1882f42ee642555316313",
      "width" : 64
    } ],
    "name" : "Adele",
    "popularity" : 88,
    "type" : "artist",
    "uri" : "spotify:artist:4dpARuHxo51G3z768sgnrY"
  }, {
    "external_urls" : {
      "spotify" : "https://open.spotify.com/artist/6RZUqkomCmb8zCRqc9eznB"
    },
    "followers" : {
      "href" : null,
      "total" : 388776
    },
    "genres" : [ ],
    "href" : "https://api.spotify.com/v1/artists/6RZUqkomCmb8zCRqc9eznB",
    "id" : "6RZUqkomCmb8zCRqc9eznB",
    "images" : [ {
      "height" : 830,
      "url" : "https://i.scdn.co/image/1ed5e90e88e36baae344a8a4828617091f21ee56",
      "width" : 1000
    }, {
      "height" : 531,
      "url" : "https://i.scdn.co/image/d1b062ebc4c435329dfa04092201fb5f91aa8f31",
      "width" : 640
    }, {
      "height" : 166,
      "url" : "https://i.scdn.co/image/d069204e345047f0561dc92f0dc04d46fc07778c",
      "width" : 200
    }, {
      "height" : 53,
      "url" : "https://i.scdn.co/image/e66885004e1929510c1610924fff1a148809d68d",
      "width" : 64
    } ],
    "name" : "Placebo",
    "popularity" : 65,
    "type" : "artist",
    "uri" : "spotify:artist:6RZUqkomCmb8zCRqc9eznB"
  }, {
    "external_urls" : {
      "spotify" : "https://open.spotify.com/artist/5BwMgvRwlq61SmknvsVIQj"
    },
    "followers" : {
      "href" : null,
      "total" : 79429
    },
    "genres" : [ "latin jazz", "salsa" ],
    "href" : "https://api.spotify.com/v1/artists/5BwMgvRwlq61SmknvsVIQj",
    "id" : "5BwMgvRwlq61SmknvsVIQj",
    "images" : [ {
      "height" : 1201,
      "url" : "https://i.scdn.co/image/0f8d87b3c48e690e39059cb1a8b7e6c7bc96c246",
      "width" : 1000
    }, {
      "height" : 769,
      "url" : "https://i.scdn.co/image/e9e3ca74ee71b74d25760ce4db1cd7e81d356c02",
      "width" : 640
    }, {
      "height" : 240,
      "url" : "https://i.scdn.co/image/90e0a91b24a858cb07536e40541b3ff33e51efb5",
      "width" : 200
    }, {
      "height" : 77,
      "url" : "https://i.scdn.co/image/bad6ec3f6d50bcc27dcbfbf8a6c659c3c0315a0d",
      "width" : 64
    } ],
    "name" : "Rubén Blades",
    "popularity" : 57,
    "type" : "artist",
    "uri" : "spotify:artist:5BwMgvRwlq61SmknvsVIQj"
  }, {
    "external_urls" : {
      "spotify" : "https://open.spotify.com/artist/0EmeFodog0BfCgMzAIvKQp"
    },
    "followers" : {
      "href" : null,
      "total" : 2234059
    },
    "genres" : [ ],
    "href" : "https://api.spotify.com/v1/artists/0EmeFodog0BfCgMzAIvKQp",
    "id" : "0EmeFodog0BfCgMzAIvKQp",
    "images" : [ {
      "height" : 1500,
      "url" : "https://i.scdn.co/image/cd060b66f9e432ce43f6c7b201f75771cd44b332",
      "width" : 1000
    }, {
      "height" : 960,
      "url" : "https://i.scdn.co/image/649285134ca2c5af3d55f06995b2b169078464a6",
      "width" : 640
    }, {
      "height" : 300,
      "url" : "https://i.scdn.co/image/cec5076f7128f62df4af99950d99bc84603f15a2",
      "width" : 200
    }, {
      "height" : 96,
      "url" : "https://i.scdn.co/image/80a3001dd4c40194dbfc0f2525df43858ae73f4c",
      "width" : 64
    } ],
    "name" : "Shakira",
    "popularity" : 83,
    "type" : "artist",
    "uri" : "spotify:artist:0EmeFodog0BfCgMzAIvKQp"
  }, {
    "external_urls" : {
      "spotify" : "https://open.spotify.com/artist/3tAICgiSR5PfYY4B8qsoAU"
    },
    "followers" : {
      "href" : null,
      "total" : 292539
    },
    "genres" : [ "argentine rock", "rock en espanol" ],
    "href" : "https://api.spotify.com/v1/artists/3tAICgiSR5PfYY4B8qsoAU",
    "id" : "3tAICgiSR5PfYY4B8qsoAU",
    "images" : [ {
      "height" : 1506,
      "url" : "https://i.scdn.co/image/499b3462462247a1c981a40ecc8b28fbf2276b89",
      "width" : 1000
    }, {
      "height" : 964,
      "url" : "https://i.scdn.co/image/d00333922d014eccb93cb02db45240bc89f5b1d4",
      "width" : 640
    }, {
      "height" : 301,
      "url" : "https://i.scdn.co/image/444a743fbbd951da0328ad646a7cc52e62a56ef3",
      "width" : 200
    }, {
      "height" : 96,
      "url" : "https://i.scdn.co/image/edec1f06d7b8fb54dab0eee21dbd766fa8b432cc",
      "width" : 64
    } ],
    "name" : "Andrés Calamaro",
    "popularity" : 67,
    "type" : "artist",
    "uri" : "spotify:artist:3tAICgiSR5PfYY4B8qsoAU"
  }, {
    "external_urls" : {
      "spotify" : "https://open.spotify.com/artist/7Ln80lUS6He07XvHI8qqHH"
    },
    "followers" : {
      "href" : null,
      "total" : 2985394
    },
    "genres" : [ ],
    "href" : "https://api.spotify.com/v1/artists/7Ln80lUS6He07XvHI8qqHH",
    "id" : "7Ln80lUS6He07XvHI8qqHH",
    "images" : [ {
      "height" : 1333,
      "url" : "https://i.scdn.co/image/c488bf987b2f716a539a768a102855450345113d",
      "width" : 1000
    }, {
      "height" : 853,
      "url" : "https://i.scdn.co/image/b30c0e39cfa70b2124b9d0d24e83761ef48e5540",
      "width" : 640
    }, {
      "height" : 267,
      "url" : "https://i.scdn.co/image/e1f00ceabce8dd0480bad7e873993082d9ac3fe9",
      "width" : 200
    }, {
      "height" : 85,
      "url" : "https://i.scdn.co/image/eba02729ec372fd9954cafd3fd71950bb8fc385f",
      "width" : 64
    } ],
    "name" : "Arctic Monkeys",
    "popularity" : 81,
    "type" : "artist",
    "uri" : "spotify:artist:7Ln80lUS6He07XvHI8qqHH"
  }, {
    "external_urls" : {
      "spotify" : "https://open.spotify.com/artist/6Q192DXotxtaysaqNPy5yR"
    },
    "followers" : {
      "href" : null,
      "total" : 1689459
    },
    "genres" : [ ],
    "href" : "https://api.spotify.com/v1/artists/6Q192DXotxtaysaqNPy5yR",
    "id" : "6Q192DXotxtaysaqNPy5yR",
    "images" : [ {
      "height" : 1284,
      "url" : "https://i.scdn.co/image/2e717f1e004f1ffdb3ff984f56f6209aee125d75",
      "width" : 1000
    }, {
      "height" : 822,
      "url" : "https://i.scdn.co/image/7cbaf1e4772f408293ce614dac5486a27f850b78",
      "width" : 640
    }, {
      "height" : 257,
      "url" : "https://i.scdn.co/image/1ee109a58290552a246017bab3c9055ed02e3f26",
      "width" : 200
    }, {
      "height" : 82,
      "url" : "https://i.scdn.co/image/b210087b97d334882a395c3fa719b9302b015383",
      "width" : 64
    } ],
    "name" : "Amy Winehouse",
    "popularity" : 77,
    "type" : "artist",
    "uri" : "spotify:artist:6Q192DXotxtaysaqNPy5yR"
  }, {
    "external_urls" : {
      "spotify" : "https://open.spotify.com/artist/5pKCCKE2ajJHZ9KAiaK11H"
    },
    "followers" : {
      "href" : null,
      "total" : 7324042
    },
    "genres" : [ "dance pop", "pop", "pop christmas" ],
    "href" : "https://api.spotify.com/v1/artists/5pKCCKE2ajJHZ9KAiaK11H",
    "id" : "5pKCCKE2ajJHZ9KAiaK11H",
    "images" : [ {
      "height" : 667,
      "url" : "https://i.scdn.co/image/7a14a83633fc6c00c3977d134397b7235f888cdf",
      "width" : 1000
    }, {
      "height" : 427,
      "url" : "https://i.scdn.co/image/ca67ea77cd79d6909c966870ae6f53297baba0bf",
      "width" : 640
    }, {
      "height" : 133,
      "url" : "https://i.scdn.co/image/5376e8a81d2849ed25cecc9b55789f91c7cb4269",
      "width" : 200
    }, {
      "height" : 43,
      "url" : "https://i.scdn.co/image/2bfed337f30cb4aedc26c39fc10fcce66a925b5b",
      "width" : 64
    } ],
    "name" : "Rihanna",
    "popularity" : 96,
    "type" : "artist",
    "uri" : "spotify:artist:5pKCCKE2ajJHZ9KAiaK11H"
  }, {
    "external_urls" : {
      "spotify" : "https://open.spotify.com/artist/13ccXrK7AmXb4TddMkE7jy"
    },
    "followers" : {
      "href" : null,
      "total" : 69066
    },
    "genres" : [ ],
    "href" : "https://api.spotify.com/v1/artists/13ccXrK7AmXb4TddMkE7jy",
    "id" : "13ccXrK7AmXb4TddMkE7jy",
    "images" : [ {
      "height" : 1249,
      "url" : "https://i.scdn.co/image/af4afd03ea0763024da0b5ddf696b55f17ae4fdd",
      "width" : 1000
    }, {
      "height" : 800,
      "url" : "https://i.scdn.co/image/342449d67f0e52898f245bbc7a76958573cd9d5e",
      "width" : 640
    }, {
      "height" : 250,
      "url" : "https://i.scdn.co/image/fab91773429ccf5572a261783bd4c960a803fae2",
      "width" : 200
    }, {
      "height" : 80,
      "url" : "https://i.scdn.co/image/a9e539293331202aab346aeace3c793c1fdcf3d1",
      "width" : 64
    } ],
    "name" : "Everything But The Girl",
    "popularity" : 55,
    "type" : "artist",
    "uri" : "spotify:artist:13ccXrK7AmXb4TddMkE7jy"
  }, {
    "external_urls" : {
      "spotify" : "https://open.spotify.com/artist/51Blml2LZPmy7TTiAg47vQ"
    },
    "followers" : {
      "href" : null,
      "total" : 1421220
    },
    "genres" : [ ],
    "href" : "https://api.spotify.com/v1/artists/51Blml2LZPmy7TTiAg47vQ",
    "id" : "51Blml2LZPmy7TTiAg47vQ",
    "images" : [ {
      "height" : 1281,
      "url" : "https://i.scdn.co/image/69d8edfbc20da323cfbab9f93d71d777a50f7594",
      "width" : 1000
    }, {
      "height" : 820,
      "url" : "https://i.scdn.co/image/300e10c6428b4a4c6649a8bfa86f12adace46951",
      "width" : 640
    }, {
      "height" : 256,
      "url" : "https://i.scdn.co/image/7a850120ca9dcddcf69af4cb3ea8227dd4a9e548",
      "width" : 200
    }, {
      "height" : 82,
      "url" : "https://i.scdn.co/image/b3bda5384dceb299fa51969049a7160b1a3144f5",
      "width" : 64
    } ],
    "name" : "U2",
    "popularity" : 76,
    "type" : "artist",
    "uri" : "spotify:artist:51Blml2LZPmy7TTiAg47vQ"
  } ],
  "total" : 50,
  "limit" : 20,
  "offset" : 0,
  "href" : "https://api.spotify.com/v1/me/top/artists",
  "previous" : null,
  "next" : "https://api.spotify.com/v1/me/top/artists?limit=20&offset=20"
}
